<?xml version="1.0" encoding="UTF-8" standalone="no"?>
<svg
   width="512"
   height="512"
   viewBox="0 0 135.46666 135.46666"
   version="1.1"
   id="svg8"
   inkscape:version="1.1 (c4e8f9ed74, 2021-05-24)"
   sodipodi:docname="icon.svg"
   inkscape:export-filename="/home/socket/projects/mc-plugins/sokol/icon.png"
   inkscape:export-xdpi="96"
   inkscape:export-ydpi="96"
   xmlns:inkscape="http://www.inkscape.org/namespaces/inkscape"
   xmlns:sodipodi="http://sodipodi.sourceforge.net/DTD/sodipodi-0.dtd"
   xmlns:xlink="http://www.w3.org/1999/xlink"
   xmlns="http://www.w3.org/2000/svg"
   xmlns:svg="http://www.w3.org/2000/svg"
   xmlns:rdf="http://www.w3.org/1999/02/22-rdf-syntax-ns#"
   xmlns:cc="http://creativecommons.org/ns#"
   xmlns:dc="http://purl.org/dc/elements/1.1/">
  <defs
     id="defs2">
    <linearGradient
       inkscape:collect="always"
       id="linearGradient6361">
      <stop
         style="stop-color:#329945;stop-opacity:1;"
         offset="0"
         id="stop6357" />
      <stop
         style="stop-color:#306b3b;stop-opacity:1"
         offset="1"
         id="stop6359" />
    </linearGradient>
    <style
       id="style8567">.cls-1{fill:none;}.cls-2{fill:#fff;}.cls-3{fill:#fa0;}.cls-4{fill:#aaa;}.cls-5{fill:#55f;}.cls-6{fill:#5f5;}.cls-7{fill:#67cbdf;}.cls-8{fill:#f55;}.cls-9{fill:#f5f;}.cls-10{fill:#ff5;}.cls-11{fill:#444;}</style>
    <clipPath
       clipPathUnits="userSpaceOnUse"
       id="clipPath19185">
      <ellipse
         style="fill:#000000;fill-opacity:1;stroke:none;stroke-width:2.11667;stroke-miterlimit:4;stroke-dasharray:none;stroke-opacity:1"
         id="ellipse19187"
         cx="262.82047"
         cy="-151.05249"
         rx="9.8783503"
         ry="6.5854788" />
    </clipPath>
    <linearGradient
       inkscape:collect="always"
       xlink:href="#linearGradient6361"
       id="linearGradient6363"
       x1="338.66666"
       y1="0"
       x2="338.66666"
       y2="135.46666"
       gradientUnits="userSpaceOnUse" />
  </defs>
  <sodipodi:namedview
     id="base"
     pagecolor="#ffffff"
     bordercolor="#666666"
     borderopacity="1.0"
     inkscape:pageopacity="0.0"
     inkscape:pageshadow="2"
     inkscape:zoom="0.7071068"
     inkscape:cx="398.80821"
     inkscape:cy="316.78383"
     inkscape:document-units="px"
     inkscape:current-layer="layer1"
     inkscape:document-rotation="0"
     showgrid="true"
     units="px"
     inkscape:window-width="1920"
     inkscape:window-height="1022"
     inkscape:window-x="0"
     inkscape:window-y="0"
     inkscape:window-maximized="1"
     inkscape:pagecheckerboard="0"
     inkscape:snap-nodes="true"
     inkscape:object-nodes="true"
     inkscape:snap-bbox="false"
     showguides="false"
     inkscape:snap-global="true"
     inkscape:snap-object-midpoints="false"
     inkscape:snap-intersection-paths="false"
     inkscape:snap-grids="true"
     inkscape:bbox-paths="true"
     inkscape:bbox-nodes="true"
     inkscape:snap-bbox-edge-midpoints="true"
     inkscape:snap-bbox-midpoints="true"
     inkscape:snap-others="false"
     inkscape:snap-smooth-nodes="false"
     inkscape:snap-midpoints="false">
    <inkscape:grid
       type="xygrid"
       id="grid6349"
       spacingx="2.1166666"
       spacingy="2.1166666"
       empspacing="4"
       enabled="true"
       dotted="false"
       visible="false" />
  </sodipodi:namedview>
  <metadata
     id="metadata5">
    <rdf:RDF>
      <cc:Work
         rdf:about="">
        <dc:format>image/svg+xml</dc:format>
        <dc:type
           rdf:resource="http://purl.org/dc/dcmitype/StillImage" />
      </cc:Work>
    </rdf:RDF>
  </metadata>
  <g
     inkscape:label="Layer 1"
     inkscape:groupmode="layer"
     id="layer1">
    <g
       id="g9829"
       transform="translate(-270.93332)">
      <circle
         style="fill:url(#linearGradient6363);fill-opacity:1;stroke-width:8.46667;stroke-miterlimit:4;stroke-dasharray:none"
         id="path1110-6-9-6"
         cx="338.66666"
         cy="67.73333"
         r="67.73333" />
      <g
         id="g26865">
        <g
           id="g26859">
          <path
             style="fill:#ffffff;fill-opacity:1;stroke:none;stroke-width:0.264583px;stroke-linecap:butt;stroke-linejoin:miter;stroke-opacity:1"
             d="m 313.26665,42.333331 25.4,8.466666 25.4,-8.466666 -8.46667,-16.933333 h -33.86666 z"
             id="path13596" />
          <path
             id="path14093"
             style="opacity:1;fill:#ffffff;fill-opacity:1;stroke:none;stroke-width:0.264583px;stroke-linecap:butt;stroke-linejoin:miter;stroke-opacity:1"
             d="m 296.33332,35.983333 c 8.46667,25.399998 42.33334,33.866665 42.33334,33.866665 0,0 33.86666,-8.466667 42.33333,-33.866665 l -14.81667,2.116666 2.11667,6.35 -29.63333,10.583333 -29.63334,-10.583333 2.11667,-6.35 z"
             sodipodi:nodetypes="ccccccccc" />
        </g>
        <path
           style="fill:#ffffff;fill-opacity:1;stroke:none;stroke-width:0.264583px;stroke-linecap:butt;stroke-linejoin:miter;stroke-opacity:1"
           d="m 304.79999,59.266665 4.23334,10e-7 c 12.7,12.7 29.63333,16.933332 29.63333,16.933332 0,0 16.93334,-4.233332 29.63334,-16.933332 4.23333,0 4.23332,-10e-7 4.23332,-10e-7 0,0 -8.46665,35.983333 -33.86665,52.916665 C 313.26668,95.250001 304.79999,59.266665 304.79999,59.266665 Z"
           id="path16931"
           sodipodi:nodetypes="ccccccc" />
      </g>
    </g>
  </g>
</svg>
